{
    "/manifest.js": "/manifest.js?id=7db827d654313dce4250",
    "/vendor.js": "/vendor.js?id=e94875bca3bf880542cb",
    "/client-api.js": "/client-api.js?id=7e022aad8155f6031752",
    "/sharp.js": "/sharp.js?id=b77c8897f7d6493699ae",
    "/sharp.css": "/sharp.css?id=e1f4e042b7f99e5a9903",
    "/sharp-cms.css": "/sharp-cms.css?id=a2793a12e4cf2f2efb63"
}
